Simulate using Parameter Uncertainty
…
s
#> ── Solved rxode2 object ──
#> ── Parameters (x$params): ──
#> # A tibble: 10,000 × 11
#>    sim.id id    theta1 theta2 theta3 theta4   RSV    eta1    eta2    eta3
#>     <int> <fct>  <dbl>  <dbl>  <dbl>  <dbl> <dbl>   <dbl>   <dbl>   <dbl>
#>  1      1 1       1.32   4.20   1.33   3.89 0.201  0.132   0.136  -0.0170
#>  2      1 2       1.32   4.20   1.33   3.89 0.201 -0.213   0.0788 -0.297 
#>  3      1 3       1.32   4.20   1.33   3.89 0.201  0.0916  0.294   0.358 
#>  4      1 4       1.32   4.20   1.33   3.89 0.201 -0.270   0.333  -0.0127
#>  5      1 5       1.32   4.20   1.33   3.89 0.201  0.298  -0.0873 -0.234 
#>  6      1 6       1.32   4.20   1.33   3.89 0.201  0.196   0.826   0.228 
#>  7      1 7       1.32   4.20   1.33   3.89 0.201 -0.263   0.144   0.128 
#>  8      1 8       1.32   4.20   1.33   3.89 0.201  0.125  -0.610  -0.489 
#>  9      1 9       1.32   4.20   1.33   3.89 0.201  0.356  -0.483  -0.0748
#> 10      1 10      1.32   4.20   1.33   3.89 0.201  0.107  -0.275   0.484 
#> # ℹ 9,990 more rows
#> # ℹ 1 more variable: eta4 <dbl>
#> ── Initial Conditions (x$inits): ──
#> CENTRAL    PERI 
#>       0       0 
#> 
#> Simulation with uncertainty in:
#> • parameters (x$thetaMat for changes)
#> • omega matrix (x$omegaList)
#> • sigma matrix (x$sigmaList)
#> 
#> ── First part of data (object): ──
#> # A tibble: 150,000 × 21
#>   sim.id    id  time    cl     v     q    v2    v1 scale1    k21    k12     f
#>    <int> <int> <dbl> <dbl> <dbl> <dbl> <dbl> <dbl>  <dbl>  <dbl>  <dbl> <dbl>
#> 1      1     1     1  4.29  76.4  3.73  45.0  76.4   76.4 0.0830 0.0489 1417.
#> 2      1     1     2  4.29  76.4  3.73  45.0  76.4   76.4 0.0830 0.0489 1284.
#> 3      1     1     3  4.29  76.4  3.73  45.0  76.4   76.4 0.0830 0.0489 1168.
#> 4      1     1     4  4.29  76.4  3.73  45.0  76.4   76.4 0.0830 0.0489 1067.
#> 5      1     1     5  4.29  76.4  3.73  45.0  76.4   76.4 0.0830 0.0489  979.
#> 6      1     1     6  4.29  76.4  3.73  45.0  76.4   76.4 0.0830 0.0489  901.
#> # ℹ 149,994 more rows
#> # ℹ 9 more variables: ipred <dbl>, rescv <dbl>, w <dbl>, ires <dbl>,
#> #   iwres <dbl>, y <dbl>, CENTRAL <dbl>, PERI <dbl>, DV <dbl>

Step 4: Summarize and plot

Since there is a bunch of data, a confidence band of the simulation with uncertainty would be helpful.

One way to do that is to select the interesting components, create a confidence interval and then plot the confidence bands:

sci <- confint(s, parm=c("CENTRAL", "PERI", "sim"))
#> summarizing data...done

sci
#> # A tibble: 90 × 7
#>        p1  time trt        p2.5     p50   p97.5 Percentile
#>     <dbl> <dbl> <fct>     <dbl>   <dbl>   <dbl> <fct>     
#>  1 0.0250     1 CENTRAL  87432.  94265.  98648. 2.5%      
#>  2 0.5        1 CENTRAL 105082. 106542. 108275. 50%       
#>  3 0.975      1 CENTRAL 111775. 113137. 114586. 97.5%     
#>  4 0.0250     2 CENTRAL  66092.  75242.  81946. 2.5%      
#>  5 0.5        2 CENTRAL  92729.  95053.  98169. 50%       
#>  6 0.975      2 CENTRAL 104349. 106948. 109566. 97.5%     
#>  7 0.0250     3 CENTRAL  51785.  60796.  68936. 2.5%      
#>  8 0.5        3 CENTRAL  82193.  85361.  89391. 50%       
#>  9 0.975      3 CENTRAL  97672. 101347. 104901. 97.5%     
#> 10 0.0250     4 CENTRAL  41524.  49825.  59256. 2.5%      
#> # ℹ 80 more rows
…
